{
  "images" : [
    {
      "idiom" : "universal",
      "scale" : "1x",
      "filename" : "water_bottle90.png"
    },
    {
      "idiom" : "universal",
      "scale" : "2x",
      "filename" : "water_bottle90@2x.png"
    },
    {
      "idiom" : "universal",
      "scale" : "3x",
      "filename" : "water_bottle90@3x.png"
    }
  ],
  "info" : {
    "version" : 1,
    "author" : "xcode"
  }
}